<?xml version="1.0" encoding="UTF-8"?>
<svg xmlns:dc="http://purl.org/dc/elements/1.1/" xmlns:cc="http://creativecommons.org/ns#"
     xmlns:rdf="http://www.w3.org/1999/02/22-rdf-syntax-ns#" xmlns:svg="http://www.w3.org/2000/svg"
     xmlns="http://www.w3.org/2000/svg" xmlns:sodipodi="http://sodipodi.sourceforge.net/DTD/sodipodi-0.dtd"
     xmlns:inkscape="http://www.inkscape.org/namespaces/inkscape" width="100mm" height="100mm" viewBox="0 0 100 100"
     version="1.1" id="svg8" inkscape:version="0.92.2 (5c3e80d, 2017-08-06)" sodipodi:docname="keedo.svg">
    <defs id="defs2">
        <marker inkscape:stockid="EmptyDiamondLend" orient="auto" refY="0" refX="0" id="EmptyDiamondLend"
                style="overflow:visible" inkscape:isstock="true">
            <path id="path4702" d="M 0,-7.0710768 -7.0710894,0 0,7.0710589 7.0710462,0 Z"
                  style="fill:#ffffff;fill-rule:evenodd;stroke:#605c50;stroke-width:1.00000003pt;stroke-opacity:1"
                  transform="matrix(0.8,0,0,0.8,-5.6,0)" inkscape:connector-curvature="0"/>
        </marker>
        <inkscape:perspective sodipodi:type="inkscape:persp3d" inkscape:vp_x="0 : 148.49999 : 1"
                              inkscape:vp_y="0 : 999.99996 : 0" inkscape:vp_z="210 : 148.49999 : 1"
                              inkscape:persp3d-origin="105 : 98.999996 : 1" id="perspective4523"/>
    </defs>
    <sodipodi:namedview id="base" pagecolor="#ffffff" bordercolor="#666666" borderopacity="1.0"
                        inkscape:pageopacity="0.0" inkscape:pageshadow="2" inkscape:zoom="1.4" inkscape:cx="140.2173"
                        inkscape:cy="110.59405" inkscape:document-units="mm" inkscape:current-layer="layer1"
                        showgrid="true" showguides="true" inkscape:snap-global="true" inkscape:window-width="1920"
                        inkscape:window-height="986" inkscape:window-x="-11" inkscape:window-y="-11"
                        inkscape:window-maximized="1">
        <inkscape:grid type="xygrid" id="grid4521"/>
    </sodipodi:namedview>
    <metadata id="metadata5">
        <rdf:RDF>
            <cc:Work rdf:about="">
                <dc:format>image/svg+xml</dc:format>
                <dc:type rdf:resource="http://purl.org/dc/dcmitype/StillImage"/>
                <dc:title/>
            </cc:Work>
        </rdf:RDF>
    </metadata>
    <g inkscape:label="Layer 1" inkscape:groupmode="layer" id="layer1" transform="translate(0,-197)">
        <ellipse
                style="opacity:0.98000004;fill:none;fill-opacity:0.41379311;stroke:#b00054;stroke-width:0.63800001;stroke-linecap:butt;stroke-linejoin:round;stroke-miterlimit:4;stroke-dasharray:none;stroke-opacity:0.98039216;paint-order:normal"
                id="path4504" ry="41.577381" rx="42.52232" cy="243.02011" cx="47.554008"/>
        <ellipse
                style="opacity:0.98000004;fill:none;fill-opacity:0.41379311;stroke:#00b0a6;stroke-width:0.604536;stroke-linecap:butt;stroke-linejoin:round;stroke-miterlimit:4;stroke-dasharray:none;stroke-opacity:1;paint-order:normal"
                id="path4504-5" ry="31.379776" rx="32.019699" cy="244.0809" cx="42.148056"/>
        <rect style="opacity:0.98000004;fill:none;fill-opacity:0.41379311;stroke:#900000;stroke-width:0.33000001;stroke-linecap:butt;stroke-linejoin:round;stroke-miterlimit:4;stroke-dasharray:none;stroke-opacity:1;paint-order:normal"
              id="rect4542" width="7.9375" height="6.614583" x="228.62001" y="33.484409" rx="2.854897" ry="3.3072915"
              transform="rotate(62.394213)"/>
        <rect style="opacity:0.98000004;fill:none;fill-opacity:0.41379311;stroke:#fff077;stroke-width:0.56499994;stroke-linecap:butt;stroke-linejoin:bevel;stroke-miterlimit:100;stroke-dasharray:none;stroke-dashoffset:22.47685051;stroke-opacity:1;paint-order:markers fill stroke"
              id="rect4976" width="6.614583" height="15.875" x="154.26999" y="164.77626" rx="2.854907" ry="3.3072915"
              transform="rotate(35.175905)"/>
        <path sodipodi:type="star"
              style="opacity:0.98000004;fill:none;fill-opacity:1;stroke:#120aa6;stroke-width:1.02415264;stroke-linecap:square;stroke-linejoin:miter;stroke-miterlimit:16;stroke-dasharray:none;stroke-dashoffset:22.47685051;stroke-opacity:1;paint-order:fill markers stroke"
              id="path8928" sodipodi:sides="3" sodipodi:cx="77.258331" sodipodi:cy="111.2625" sodipodi:r1="4.6809573"
              sodipodi:r2="2.3404787" sodipodi:arg1="0.74541948" sodipodi:arg2="1.792617" inkscape:flatsided="true"
              inkscape:rounded="0.92" inkscape:randomized="0"
              d="m 80.697915,114.4375 c -5.059321,5.48093 -5.692041,5.33823 -7.909006,-1.78374 -2.216965,-7.12196 -1.777024,-7.59856 5.499261,-5.95753 7.276286,1.64104 7.469066,2.26034 2.409745,7.74127 z"
              inkscape:transform-center-x="-0.31554505" inkscape:transform-center-y="-0.34327346"
              transform="matrix(0.3029636,0.22877734,-0.18359011,0.37753239,60.921578,151.15198)"/>
    </g>
</svg>
