<?xml version="1.0" encoding="UTF-8" standalone="no"?>
<!-- Created with Inkscape (http://www.inkscape.org/) -->

<svg
   xmlns:dc="http://purl.org/dc/elements/1.1/"
   xmlns:cc="http://creativecommons.org/ns#"
   xmlns:rdf="http://www.w3.org/1999/02/22-rdf-syntax-ns#"
   xmlns:svg="http://www.w3.org/2000/svg"
   xmlns="http://www.w3.org/2000/svg"
   xmlns:sodipodi="http://sodipodi.sourceforge.net/DTD/sodipodi-0.dtd"
   xmlns:inkscape="http://www.inkscape.org/namespaces/inkscape"
   width="200mm"
   height="90mm"
   viewBox="0 0 200 90"
   version="1.1"
   id="svg8936"
   inkscape:version="0.92.2 (5c3e80d, 2017-08-06)"
   sodipodi:docname="drawing-4.svg">
  <defs
     id="defs8930" />
  <sodipodi:namedview
     id="base"
     pagecolor="#ffffff"
     bordercolor="#666666"
     borderopacity="1.0"
     inkscape:pageopacity="0.0"
     inkscape:pageshadow="2"
     inkscape:zoom="0.98994949"
     inkscape:cx="291.42097"
     inkscape:cy="151.4951"
     inkscape:document-units="mm"
     inkscape:current-layer="layer1"
     showgrid="false"
     inkscape:window-width="1920"
     inkscape:window-height="986"
     inkscape:window-x="-11"
     inkscape:window-y="-11"
     inkscape:window-maximized="1" />
  <metadata
     id="metadata8933">
    <rdf:RDF>
      <cc:Work
         rdf:about="">
        <dc:format>image/svg+xml</dc:format>
        <dc:type
           rdf:resource="http://purl.org/dc/dcmitype/StillImage" />
        <dc:title></dc:title>
      </cc:Work>
    </rdf:RDF>
  </metadata>
  <g
     inkscape:label="Layer 1"
     inkscape:groupmode="layer"
     id="layer1"
     transform="translate(0,-207)">
    <path
       sodipodi:type="star"
       style="opacity:0.98000004;fill:none;fill-opacity:1;stroke:#120aa6;stroke-width:1.02415264;stroke-linecap:square;stroke-linejoin:miter;stroke-miterlimit:16;stroke-dasharray:none;stroke-dashoffset:22.47685051;stroke-opacity:1;paint-order:fill markers stroke"
       id="path8928"
       sodipodi:sides="3"
       sodipodi:cx="77.258331"
       sodipodi:cy="111.2625"
       sodipodi:r1="4.6809573"
       sodipodi:r2="2.3404787"
       sodipodi:arg1="0.74541948"
       sodipodi:arg2="1.792617"
       inkscape:flatsided="true"
       inkscape:rounded="0.92"
       inkscape:randomized="0"
       d="m 80.697915,114.4375 c -5.059321,5.48093 -5.692041,5.33823 -7.909006,-1.78374 -2.216965,-7.12196 -1.777024,-7.59856 5.499261,-5.95753 7.276286,1.64104 7.469066,2.26034 2.409745,7.74127 z"
       inkscape:transform-center-x="-0.31554505"
       inkscape:transform-center-y="-0.34327346"
       transform="matrix(0.30296361,0.22877734,-0.18359011,0.3775324,33.163765,184.14496)" />
    <rect
       style="opacity:0.98000004;fill:none;fill-opacity:0.41379311;stroke:#900000;stroke-width:0.33000001;stroke-linecap:butt;stroke-linejoin:round;stroke-miterlimit:4;stroke-dasharray:none;stroke-opacity:1;paint-order:normal"
       id="rect4542"
       width="7.9375"
       height="6.614583"
       x="282.39099"
       y="-52.248989"
       rx="2.854897"
       ry="3.3072915"
       transform="rotate(62.394213)" />
    <path
       sodipodi:type="star"
       style="opacity:0.98000004;fill:none;fill-opacity:1;stroke:#ffb27c;stroke-width:0.63800001;stroke-linecap:square;stroke-linejoin:miter;stroke-miterlimit:4;stroke-dasharray:none;stroke-dashoffset:22.47685051;stroke-opacity:0.98039216;paint-order:fill markers stroke"
       id="path9525"
       sodipodi:sides="4"
       sodipodi:cx="104.88839"
       sodipodi:cy="60.00893"
       sodipodi:r1="14.108439"
       sodipodi:r2="9.9761724"
       sodipodi:arg1="0.88977932"
       sodipodi:arg2="1.6751775"
       inkscape:flatsided="true"
       inkscape:rounded="0.65"
       inkscape:randomized="0"
       d="m 113.77083,70.97024 c -10.07606,8.165084 -11.67867,7.997192 -19.84375,-2.078869 -8.165084,-10.076062 -7.997192,-11.678666 2.078869,-19.843751 10.076061,-8.165084 11.678671,-7.997192 19.843751,2.07887 8.16508,10.076061 7.99719,11.678666 -2.07887,19.84375 z"
       inkscape:transform-center-x="1.8909468e-006"
       transform="matrix(0.99032968,-0.32698764,0.31353209,0.9495776,-58.385556,207.84096)" />
    <path
       sodipodi:type="star"
       style="opacity:0.98000004;fill:none;fill-opacity:1;stroke:#b05400;stroke-width:0.63800001;stroke-linecap:square;stroke-linejoin:miter;stroke-miterlimit:4;stroke-dasharray:none;stroke-dashoffset:22.47685051;stroke-opacity:0.98039216;paint-order:fill markers stroke"
       id="path9529"
       sodipodi:sides="4"
       sodipodi:cx="142.49702"
       sodipodi:cy="53.394344"
       sodipodi:r1="5.3520679"
       sodipodi:r2="3.7844837"
       sodipodi:arg1="0.73543977"
       sodipodi:arg2="1.5208379"
       inkscape:flatsided="true"
       inkscape:rounded="0.92"
       inkscape:randomized="0"
       d="m 146.46577,56.985118 c -4.67187,5.163647 -2.39587,5.049847 -7.55952,0.377976 -5.16365,-4.671871 -5.04985,-2.395876 -0.37798,-7.559523 4.67188,-5.163647 2.39588,-5.049848 7.55953,-0.377977 5.16365,4.671872 5.04985,2.395877 0.37797,7.559524 z"
       inkscape:transform-center-x="1.4236653e-006"
       transform="rotate(24.972759,-281.74401,153.03805)"
       inkscape:transform-center-y="-2.337612e-006" />
    <ellipse
       style="opacity:0.98000004;fill:none;fill-opacity:1;stroke:#fe7171;stroke-width:0.35496134;stroke-linecap:square;stroke-linejoin:miter;stroke-miterlimit:4;stroke-dasharray:none;stroke-dashoffset:22.47685051;stroke-opacity:1;paint-order:fill markers stroke"
       id="path9557"
       ry="3.1653285"
       rx="3.165329"
       cy="277.48346"
       cx="117.81827" />
    <rect
       style="opacity:0.98000004;fill:none;fill-opacity:1;stroke:#ffb37d;stroke-width:0.45349509;stroke-linecap:square;stroke-linejoin:miter;stroke-miterlimit:4;stroke-dasharray:none;stroke-dashoffset:22.47685051;stroke-opacity:0.96078431;paint-order:fill markers stroke"
       id="rect9559"
       width="8.2887402"
       height="8.1511698"
       x="25.699257"
       y="267.55954"
       rx="1.8445473"
       ry="2.5862973" />
    <path
       sodipodi:type="star"
       style="opacity:0.98000004;fill:none;fill-opacity:1;stroke:#1985fd;stroke-width:0.63800001;stroke-linecap:square;stroke-linejoin:miter;stroke-miterlimit:4;stroke-dasharray:none;stroke-dashoffset:22.47685051;stroke-opacity:1;paint-order:fill markers stroke"
       id="path9769"
       sodipodi:sides="4"
       sodipodi:cx="165.1756"
       sodipodi:cy="271.48663"
       sodipodi:r1="20.264954"
       sodipodi:r2="14.329486"
       sodipodi:arg1="-3.0762652"
       sodipodi:arg2="-2.290867"
       inkscape:flatsided="true"
       inkscape:rounded="0.65"
       inkscape:randomized="0"
       d="m 144.95387,270.16372 c 1.21608,-18.5886 2.95605,-20.11489 21.54464,-18.89881 18.5886,1.21607 20.11489,2.95604 18.89882,21.54464 -1.21608,18.5886 -2.95605,20.11489 -21.54465,18.89881 -18.58859,-1.21608 -20.11488,-2.95605 -18.89881,-21.54464 z"
       transform="matrix(0.5101225,0,0,0.58374361,87.908369,101.85775)" />
    <path
       sodipodi:type="spiral"
       style="fill:none;fill-rule:evenodd;stroke:#e5a336;stroke-width:0.26458332;stroke-opacity:0.73750001"
       id="path9783"
       sodipodi:cx="48.380955"
       sodipodi:cy="252.20982"
       sodipodi:expansion="1"
       sodipodi:revolution="2.96346"
       sodipodi:radius="2.8599088"
       sodipodi:argument="-16.91662"
       sodipodi:t0="0"
       d="m 48.380955,252.20982 c -0.05143,0.13575 -0.208353,-0.002 -0.225616,-0.0855 -0.04678,-0.22526 0.200682,-0.37634 0.396564,-0.36576 0.350386,0.0189 0.555585,0.38553 0.5059,0.70766 -0.07291,0.47272 -0.57231,0.73854 -1.018745,0.64604 -0.595026,-0.12329 -0.922988,-0.7597 -0.786184,-1.32984 0.172153,-0.71746 0.947359,-1.10818 1.640925,-0.92632 0.840002,0.22025 1.293808,1.13517 1.066469,1.95201 -0.267911,0.96263 -1.323071,1.4797 -2.263106,1.20661 -1.085307,-0.31529 -1.665776,-1.51103 -1.346753,-2.57419 0.362494,-1.20803 1.699043,-1.85198 2.885286,-1.4869 1.330786,0.40957 2.038269,1.88708 1.627038,3.19638 -0.38136,1.21419 -1.601098,1.99412 -2.859755,1.89461" />
  </g>
</svg>
